Project 1: Exploratory Data Analysis
…
# saving csv of all the symbols (taken out for the final
# knitting) --> using tool to grab more stuff specific to the
# stock
holdings_df %>% select(-Fund, -Weighting) %>% unique() %>% arrange(desc(Symbol))

## # A tibble: 3,412 x 2
##    Holding                       Symbol
##    <chr>                         <chr> 
##  1 Zuora Inc                     ZUO   
##  2 Zoetis Inc                    ZTS   
##  3 ZTO Express (Cayman) Inc      ZTO   
##  4 Zscaler Inc                   ZS    
##  5 Zardoya Otis SA               ZOT   
##  6 Zynga Inc                     ZNGA  
##  7 Zoom Video Communications Inc ZM    
##  8 Zai Lab Ltd                   ZLAB  
##  9 Zions Bancorporation NA       ZION  
## 10 ZoomInfo Technologies Inc     ZI    
## # … with 3,402 more rows
…
